\begin{tikzpicture}
	\begin{pgfonlayer}{nodelayer}
		\node [style=parameter] (0) at (0, 6) {\(x\)};
		\node [style=constant] (1) at (2, 4) {5};
		\node [style=constant] (2) at (-4, 6) {\(f\)};
		\node [style=value] (3) at (-2, 4) {};
		\node [style=value] (4) at (0, 2) {};
		\node [style=constant] (5) at (-4, 2) {\(+\)};
		\node [style=value] (6) at (-2, 0) {};
		\node [style=value] (7) at (0, -2) {};
		\node [style=constant, label={right:\(\mt{FOPEN\_MAX}\)}] (8) at (2, 0) {};
	\end{pgfonlayer}
	\begin{pgfonlayer}{edgelayer}
		\draw [style=dep] (2) to (3);
		\draw [style=dep] (0) to (3);
		\draw [style=dep] (3) to (4);
		\draw [style=dep] (1) to (4);
		\draw [style=dep] (5) to (6);
		\draw [style=dep] (4) to (6);
		\draw [style=dep] (6) to (7);
		\draw [style=dep] (8) to (7);
	\end{pgfonlayer}
\end{tikzpicture}
