\begin{tikzpicture}
	\begin{pgfonlayer}{nodelayer}
		\node [style=constant] (0) at (0, 5) {\(\true\)};
		\node [style=constant] (2) at (0, 7) {\(\bool\)};
	\end{pgfonlayer}
	\begin{pgfonlayer}{edgelayer}
		\draw [style=type] (2) to (0);
	\end{pgfonlayer}
\end{tikzpicture}
